{
  "message": "Succes",
  "data": [
    {
      "iD_location": 7,
      "date": "5/22/2018 1:29:59 PM",
      "state": "عمان",
      "iD_state": 1,
      "area": "الجاردنز",
      "iD_area": 3,
      "location_name": "home",
      "location": "Um_osood_street",
      "phone": "0797236338"
    },
    {
      "iD_location": 8,
      "date": "5/22/2018 1:36:33 PM",
      "state": "عمان",
      "iD_state": 1,
      "area": "الرابية",
      "iD_area": 1,
      "location_name": "home_test",
      "location": "Test_details",
      "phone": "0786150657"
    },
    {
      "iD_location": 9,
      "date": "5/22/2018 1:58:18 PM",
      "state": "عمان",
      "iD_state": 1,
      "area": "البيادر",
      "iD_area": 2,
      "location_name": "work",
      "location": "Tesssssst",
      "phone": "0777777777"
    }
  ],
  "status": true
}