{
  "email": "mxninja-@gmail.com",
  "password": "MxTwin1",
  "pic": null,
  "pic_format": null,
  "name": "Mohammad Al-Najjar",
  "Gender": "M",
  "Age": 28,
  "Notifcation_id": "0",
  "birth": "25-07-1990",
  "mac_address": "46848445121351686",
  "Device_type": "1"
}