{
  "email": "haa787h33789824jjj3@gmail.com",
  "password": "123456",
  "phone": "0776434794",
  "owner_name": "Qaseem",
  "shopeName": "Hassan",
  "shopeName_ar": "Hassan",
  "time_open": "9:00",
  "time_close": "19:00",
  "device_type": 1,
  "State": 1,
  "area": 1,
  "location": "بالقرب من اشارة السابع",
  "elego": 1,
  "Notification_id": "4587اء",
  "location_long": "54684665.2646-54686832.2514",
  "location_laut": "54684665.2646-54686832.2514",
  "kind": "بيع",
  "kind_ar": "بيع",
  "Mac_add": "46848445121351686",
  "PicLogo": "",
  "shop_logo_format": "",
  "Cover_Photo": "",
  "cover_photo_format": "",
  "lics_pic": "",
  "lics_format": "",
  "seller_category": [
    1,
    2,
    3
  ]
}