<?xml version="1.0" encoding="utf-8"?>
<!-- Generator: Adobe Illustrator 22.0.0, SVG Export Plug-In . SVG Version: 6.00 Build 0)  -->
<svg version="1.1" id="Layer_1" xmlns="http://www.w3.org/2000/svg" xmlns:xlink="http://www.w3.org/1999/xlink" x="0px" y="0px"
	 viewBox="0 0 24 24" style="enable-background:new 0 0 24 24;" xml:space="preserve">
<style type="text/css">
	.st0{fill:#FFFFFF;}
</style>
<path d="M12.7,2.3l1.6,1.6c0.2,0.2,0.5,0.3,0.9,0.3l2.3-0.4c0.5-0.1,1,0.3,1.1,0.8l0.3,2.2c0,0.3,0.2,0.6,0.5,0.7l2.1,0.9
	c0.5,0.2,0.7,0.8,0.4,1.2l-1.1,2c-0.2,0.3-0.2,0.6,0,0.9l1.1,2c0.3,0.4,0.1,1-0.4,1.2l-2.1,0.9c-0.3,0.1-0.5,0.4-0.5,0.7l-0.3,2.2
	c-0.1,0.5-0.6,0.9-1.1,0.8l-2.3-0.4c-0.3-0.1-0.6,0-0.9,0.3l-1.6,1.6c-0.4,0.4-1,0.4-1.4,0l-1.6-1.6c-0.2-0.2-0.5-0.3-0.9-0.3
	l-2.3,0.4c-0.5,0.1-1-0.3-1.1-0.8l-0.3-2.2c0-0.3-0.2-0.6-0.5-0.7l-2.1-0.9c-0.5-0.2-0.7-0.8-0.4-1.2l1.1-2c0.2-0.3,0.2-0.6,0-0.9
	l-1.1-2C1.9,9.2,2,8.6,2.5,8.4l2.1-0.9C5,7.3,5.2,7,5.2,6.7l0.3-2.2C5.5,4,6,3.7,6.6,3.8l2.3,0.4c0.3,0.1,0.6,0,0.9-0.3l1.6-1.6
	C11.7,1.9,12.3,1.9,12.7,2.3z"/>
<g>
	<path class="st0" d="M10.7,12c0.4-0.5,0.6-1.1,0.6-1.9c0-2.1-1.2-2.6-2.2-2.6c-0.7,0-1.3,0.2-1.7,0.7C7,8.6,6.8,9.2,6.8,10.1
		c0,2.2,1.2,2.6,2.3,2.6C9.7,12.7,10.3,12.5,10.7,12z M9.8,10c0,0.7-0.1,1.1-0.4,1.4c-0.1,0.1-0.3,0.2-0.5,0.2c-0.2,0-0.8,0-0.8-1.4
		c0-1.4,0.6-1.4,0.8-1.4C9.2,8.6,9.8,8.6,9.8,10z"/>
	<polygon class="st0" points="13.9,7.2 8.7,16.8 10.1,16.8 15.3,7.2 	"/>
	<path class="st0" d="M16.3,11.7c-0.4-0.2-0.8-0.4-1.3-0.4c-0.8,0-1.4,0.3-1.8,0.7c-0.4,0.5-0.6,1.1-0.6,1.9c0,2.1,1.2,2.6,2.2,2.6
		c1,0,2.3-0.5,2.3-2.7C17.2,12.8,16.9,12.1,16.3,11.7z M15.8,13.9c0,1.5-0.6,1.5-0.8,1.5c-0.2,0-0.8,0-0.8-1.4
		c0-0.5,0.1-0.9,0.2-1.1c0.1-0.3,0.3-0.4,0.6-0.4C15.2,12.5,15.8,12.5,15.8,13.9z"/>
</g>
</svg>
