<?xml version="1.0" encoding="utf-8"?>
<!-- Generator: Adobe Illustrator 22.0.0, SVG Export Plug-In . SVG Version: 6.00 Build 0)  -->
<svg version="1.1" id="Layer_1" xmlns="http://www.w3.org/2000/svg" xmlns:xlink="http://www.w3.org/1999/xlink" x="0px" y="0px"
	 viewBox="0 0 24 24" style="enable-background:new 0 0 24 24;" xml:space="preserve">
<style type="text/css">
	.st0{fill:#EE4036;}
	.st1{fill:#FFFFFF;}
	.st2{opacity:0.2;fill:#FFFFFF;}
</style>
<g>
	<path id="XMLID_64_" class="st0" d="M12,22L12,22C6.5,22,2,17.5,2,12v0C2,6.5,6.5,2,12,2h0c5.5,0,10,4.5,10,10v0
		C22,17.5,17.5,22,12,22z"/>
	<g>
		<path class="st1" d="M12.6,13.4l0-0.3c0.5-0.3,0.9-0.9,0.9-1.7c0-1-0.7-1.8-1.5-1.8c-0.8,0-1.5,0.8-1.5,1.8c0,0.8,0.4,1.4,0.9,1.7
			l0,0.2c-0.4,0.5-2.1,0.5-2.1,2.4H12v0h2.7C14.7,14,13,13.9,12.6,13.4z"/>
		<path class="st1" d="M10.5,13.2c-0.4-0.5-0.6-1.1-0.6-1.7c0-1.1,0.7-2.1,1.5-2.4c-0.2-0.6-0.7-1-1.3-1c-0.8,0-1.5,0.8-1.5,1.8
			c0,0.8,0.4,1.4,0.9,1.7l0,0.2c-0.4,0.5-2.1,0.5-2.1,2.4h1.6C9.5,13.7,10.1,13.4,10.5,13.2z"/>
		<path class="st1" d="M14.1,11.5c0,0.7-0.2,1.3-0.6,1.7c0.4,0.2,1,0.5,1.4,1.1h1.6c0-1.9-1.7-1.9-2.1-2.4l0-0.3
			c0.5-0.3,0.9-0.9,0.9-1.7c0-1-0.7-1.8-1.5-1.8c-0.6,0-1.1,0.4-1.3,1C13.5,9.4,14.1,10.4,14.1,11.5z"/>
	</g>
	<g>
		<g id="XMLID_48_">
			<path id="XMLID_63_" class="st2" d="M12,3.6c-4.7,0-8.4,3.8-8.4,8.4c0,1.9,0.7,3.6,1.7,5.1L16.7,5C15.4,4.1,13.7,3.6,12,3.6z"/>
		</g>
	</g>
</g>
</svg>
