<?xml version="1.0" encoding="utf-8"?>
<!-- Generator: Adobe Illustrator 22.0.0, SVG Export Plug-In . SVG Version: 6.00 Build 0)  -->
<svg version="1.1" id="Layer_1" xmlns="http://www.w3.org/2000/svg" xmlns:xlink="http://www.w3.org/1999/xlink" x="0px" y="0px"
	 viewBox="0 0 24 24" style="enable-background:new 0 0 24 24;" xml:space="preserve">
<style type="text/css">
	.st0{fill:#BA86FA;}
	.st1{fill:#FFFFFF;}
	.st2{opacity:0.2;fill:#FFFFFF;}
</style>
<g>
	<g>
		<path id="XMLID_68_" class="st0" d="M12,22L12,22C6.5,22,2,17.5,2,12v0C2,6.5,6.5,2,12,2h0c5.5,0,10,4.5,10,10v0
			C22,17.5,17.5,22,12,22z"/>
	</g>
	<g>
		<path class="st1" d="M13.4,12.2c-0.1,0-0.2,0.1-0.3,0.2C13,12.5,13,12.7,13,12.9c0,0.7,0.3,0.7,0.4,0.7c0.1,0,0.4,0,0.4-0.7
			C13.7,12.2,13.4,12.2,13.4,12.2z"/>
		<path class="st1" d="M10.9,11.7c0.1-0.1,0.2-0.3,0.2-0.6c0-0.6-0.3-0.6-0.4-0.6c-0.1,0-0.4,0-0.4,0.7c0,0.7,0.3,0.7,0.4,0.7
			C10.8,11.8,10.8,11.8,10.9,11.7z"/>
		<path class="st1" d="M15.9,12.2c-0.1-0.1-0.1-0.3,0-0.4l0.5-0.9c0.1-0.2,0-0.5-0.2-0.6l-1-0.4c-0.1-0.1-0.2-0.2-0.2-0.3l-0.1-1
			c0-0.2-0.3-0.4-0.5-0.4l-1,0.2c-0.1,0-0.3,0-0.4-0.1l-0.7-0.8c-0.2-0.2-0.4-0.2-0.6,0L11,8.2c-0.1,0.1-0.2,0.2-0.4,0.1l-1-0.2
			c-0.2,0-0.5,0.1-0.5,0.4l-0.1,1c0,0.1-0.1,0.3-0.2,0.3l-1,0.4c-0.2,0.1-0.3,0.4-0.2,0.6l0.5,0.9c0.1,0.1,0.1,0.3,0,0.4l-0.5,0.9
			c-0.1,0.2,0,0.5,0.2,0.6l1,0.4c0.1,0.1,0.2,0.2,0.2,0.3l0.1,1c0,0.2,0.3,0.4,0.5,0.4l1-0.2c0.1,0,0.3,0,0.4,0.1l0.7,0.8
			c0.2,0.2,0.4,0.2,0.6,0l0.7-0.8c0.1-0.1,0.2-0.2,0.4-0.1l1,0.2c0.2,0,0.5-0.1,0.5-0.4l0.1-1c0-0.1,0.1-0.3,0.2-0.3l1-0.4
			c0.2-0.1,0.3-0.4,0.2-0.6L15.9,12.2z M9.6,11.1c0-0.4,0.1-0.7,0.3-0.9c0.2-0.2,0.4-0.3,0.8-0.3c0.5,0,1,0.2,1,1.2
			c0,0.4-0.1,0.7-0.3,0.9c-0.2,0.2-0.4,0.3-0.8,0.3C10.2,12.3,9.6,12.1,9.6,11.1z M11.1,14.3h-0.6l2.4-4.5h0.6L11.1,14.3z
			 M13.3,14.1c-0.5,0-1-0.2-1-1.2c0-0.4,0.1-0.7,0.3-0.9c0.2-0.2,0.4-0.4,0.8-0.4c0.2,0,0.4,0.1,0.6,0.2c0.3,0.2,0.4,0.5,0.4,1
			C14.4,13.9,13.8,14.1,13.3,14.1z"/>
	</g>
	<g>
		<g id="XMLID_66_">
			<path id="XMLID_67_" class="st2" d="M12,3.6c-4.7,0-8.4,3.8-8.4,8.4c0,1.9,0.7,3.6,1.7,5.1L16.7,5C15.4,4.1,13.7,3.6,12,3.6z"/>
		</g>
	</g>
</g>
</svg>
